module github.com/Equationzhao/g

go 1.21

require (
	github.com/Equationzhao/pathbeautify v0.0.7
	github.com/Equationzhao/tsmap v0.0.6
	github.com/acarl005/stripansi v0.0.0-20180116102854-5a71ef0e047d
	github.com/gabriel-vasile/mimetype v1.4.2
	github.com/gobwas/glob v0.2.3
	github.com/gookit/color v1.5.4
	github.com/hako/durafmt v0.0.0-20210608085754-5c1018a4e16b
	github.com/jedib0t/go-pretty/v6 v6.4.7
	github.com/junegunn/fzf v0.0.0-20230903073035-0f50dc848e58
	github.com/mattn/go-runewidth v0.0.15
	github.com/olekukonko/ts v0.0.0-20171002115256-78ecb04241c0
	github.com/panjf2000/ants/v2 v2.8.2
	github.com/saintfish/chardet v0.0.0-20230101081208-5e3ef4b5456d
	github.com/savioxavier/termlink v1.3.0
	github.com/syndtr/goleveldb v1.0.0
	github.com/urfave/cli/v2 v2.25.7
	github.com/valyala/bytebufferpool v1.0.0
	github.com/wk8/go-ordered-map/v2 v2.1.8
	github.com/xrash/smetrics v0.0.0-20201216005158-039620a65673
	go.szostok.io/version v1.2.0
	gopkg.in/yaml.v3 v3.0.1
)

require (
	github.com/Masterminds/goutils v1.1.1 // indirect
	github.com/Masterminds/semver/v3 v3.2.1 // indirect
	github.com/Masterminds/sprig/v3 v3.2.3 // indirect
	github.com/araddon/dateparse v0.0.0-20210429162001-6b43995a97de // indirect
	github.com/aymanbagabas/go-osc52/v2 v2.0.1 // indirect
	github.com/bahlo/generic-list-go v0.2.0 // indirect
	github.com/buger/jsonparser v1.1.1 // indirect
	github.com/cpuguy83/go-md2man/v2 v2.0.2 // indirect
	github.com/dolthub/maphash v0.1.0 // indirect
	github.com/dustin/go-humanize v1.0.1 // indirect
	github.com/fatih/color v1.15.0 // indirect
	github.com/goccy/go-yaml v1.11.2 // indirect
	github.com/golang/snappy v0.0.4 // indirect
	github.com/google/uuid v1.3.1 // indirect
	github.com/hashicorp/go-version v1.6.0 // indirect
	github.com/hokaccha/go-prettyjson v0.0.0-20211117102719-0474bc63780f // indirect
	github.com/huandu/xstrings v1.4.0 // indirect
	github.com/imdario/mergo v0.3.16 // indirect
	github.com/lucasb-eyer/go-colorful v1.2.0 // indirect
	github.com/mailru/easyjson v0.7.7 // indirect
	github.com/mattn/go-colorable v0.1.13 // indirect
	github.com/mattn/go-isatty v0.0.19 // indirect
	github.com/mitchellh/copystructure v1.2.0 // indirect
	github.com/mitchellh/reflectwalk v1.0.2 // indirect
	github.com/muesli/termenv v0.15.2 // indirect
	github.com/rivo/uniseg v0.4.4 // indirect
	github.com/russross/blackfriday/v2 v2.1.0 // indirect
	github.com/shopspring/decimal v1.3.1 // indirect
	github.com/spf13/cast v1.5.1 // indirect
	github.com/spf13/pflag v1.0.5 // indirect
	github.com/xo/terminfo v0.0.0-20220910002029-abceb7e1c41e // indirect
	golang.org/x/crypto v0.13.0 // indirect
	golang.org/x/exp v0.0.0-20230626212559-97b1e661b5df // indirect
	golang.org/x/net v0.15.0 // indirect
	golang.org/x/sys v0.12.0 // indirect
	golang.org/x/xerrors v0.0.0-20220907171357-04be3eba64a2 // indirect
	gopkg.in/yaml.v2 v2.4.0 // indirect
)
